{
  "name": "gamma-flux",
  "title": "Gamma Flux World",
  "description": "Based on old school post apocalyptic games",
  "version": "0.0.1",
  "minimumCoreVersion": "0.8.3",
  "compatibleCoreVersion": "0.8.6",
  "author": "LonelyGm",
  "esmodules": ["gamma-flux.js"],
  "styles": ["css/gamma-flux.css"],
  "scripts": [],
  "packs": [],
  "languages": [
    {
      "lang": "en",
      "name": "English",
      "path": "lang/en.json"
    }
  ],
  "gridDistance": 1,
  "gridUnits": "m",
  "primaryTokenAttribute": "attributes.hp.value",
  "secondaryTokenAttribute": "power",
  "url": "",
  "manifest": "",
  "download": "",
  "license": "LICENSE.txt",
  "url": "https://gitlab.com/LonelyGm/gamma-flux",
  "manifest": "https://gitlab.com/LonelyGm/gamma-flux/-/raw/main/system.json",
  "download": "https://gitlab.com/LonelyGm/gamma-flux/-/archive/main/gamma-flux.zip"
}
